{
  "parent": "cobblemon:recipes/root",
  "criteria": {
    "has_ice": {
      "conditions": {
        "items": [
          {
            "items": [
              "minecraft:blue_ice"
            ]
          }
        ]
      },
      "trigger": "minecraft:inventory_changed"
    },
    "has_the_recipe": {
      "conditions": {
        "recipe": "cobblemon:never_melt_ice"
      },
      "trigger": "minecraft:recipe_unlocked"
    }
  },
  "requirements": [
    [
      "has_ice",
      "has_the_recipe"
    ]
  ],
  "rewards": {
    "recipes": [
      "cobblemon:never_melt_ice"
    ]
  }
}